<?xml version="1.0" encoding="utf-8"?>
<!-- Generator: Adobe Illustrator 19.0.0, SVG Export Plug-In . SVG Version: 6.00 Build 0)  -->
<svg version="1.1" id="Layer_1" xmlns="http://www.w3.org/2000/svg" xmlns:xlink="http://www.w3.org/1999/xlink" x="0px" y="0px"
	 viewBox="0 0 231 96" style="enable-background:new 0 0 231 96;" xml:space="preserve">
<style type="text/css">
	.st0{fill:#63a1d7;}
</style>
<path class="st0" d="M33.3,49.3c-0.3,0.5-0.5,1-0.8,1.4c-1,1.6-1.9,3.2-3,4.8c-1.4,2.1-2.8,4.1-4.3,6.1c-0.8,1.1-1.8,2.1-2.8,3.1
	c-2.4,2.4-4.8,4.7-7.2,7c-0.5,0.5-1,0.5-1.5,0.1c-0.5-0.4-0.5-1.1-0.1-1.7c1.4-1.9,2.9-3.7,4.2-5.6c1.4-2,2.7-4.1,3.9-6.3
	c1.3-2.3,2.5-4.7,3.4-7.2c1.3-3.5,2.4-7.2,3.6-10.8c0.3-1.1,0.4-2.3,0.6-3.5c-1.5,0.1-3,0.3-4.6,0.4c-1.9,0.1-3.7,0.3-5.6,0.4
	c-3,0.1-6,0.1-8.9,0.1c-1.7,0-2.7-1-3.4-2.4c-0.7-1.4-0.6-2.8,0.3-4c1.1-1.5,2.6-1.9,4.4-1.7c2.1,0.2,4.2,0.5,6.3,0.5
	c4.3,0.1,8.6,0.2,13,0.1c3.6-0.1,7.2-0.4,10.8-0.8c3.8-0.5,7.6-1.3,11.4-1.8c4.2-0.6,8.2-1.9,12.2-3.3c2.7-0.9,5.3-1.9,7.9-3
	c2.4-1,4.6-2.2,6.9-3.4c1.3-0.7,2.5-1.4,3.8-2.2c0.7-0.4,1.4-0.3,1.8,0.3c0.4,0.6,0.3,1.3-0.4,1.8c-2.2,1.4-4.5,2.8-6.8,4.2
	c-1.1,0.7-2.2,1.3-3.4,1.9c-2.5,1.2-4.9,2.4-7.5,3.5c-3.1,1.3-6.3,2.5-9.5,3.5c-4.4,1.3-8.8,2.4-13.3,3.6c-0.5,0.1-1,0.2-1.5,0.2
	c-0.5,0-0.6,0.2-0.6,0.7c0.1,2.1,0.3,4.2,0.3,6.3c0.1,4.4,0,8.7-0.9,13c-0.7,3.5-1.7,6.9-2.6,10.4c-0.8,2.9-2,5.7-3.3,8.4
	c-1.1,2.2-2.3,4.4-3.4,6.7c-1.6,3.2-3.8,6-5.9,8.9c-0.5,0.7-1.1,1.4-1.7,2.1c-0.5,0.7-1.5,0.9-2.2,0.4c-0.7-0.5-0.9-1.3-0.4-2.1
	c0.9-1.8,1.8-3.5,2.6-5.3c1.2-2.9,2.5-5.8,3.4-8.7c1.5-4.6,2.9-9.2,3.6-13.9c0.6-3.9,0.8-7.9,1.2-11.9
	C33.4,49.6,33.4,49.5,33.3,49.3"/>
<path class="st0" d="M74.9,52.7c0.9,0.7,1.9,1.4,2.7,2.2c1,0.9,1.3,2.1,1.4,3.3c0.3,3.9-2.2,6.3-6,7c-1.1,0.2-2.3,0.3-3.5,0.3
	c-3.2,0-6.5,0-9.7,0c-1,0-1.2-0.2-1.2-1.2c0-7.3,0-14.5,0-21.8c0-0.9,0.2-1.1,1.1-1.1c3.6,0,7.2,0,10.7,0c2.7,0,5,0.9,6.4,3.3
	c0.5,0.8,0.6,1.8,0.7,2.7c0.1,1.2,0,2.5-0.8,3.6c-0.4,0.6-1,1-1.6,1.5C75.1,52.6,74.9,52.7,74.9,52.7 M63.8,60.7c1.2,0,2.4,0,3.5,0
	c1.4,0,2.8,0,4.2-0.2c1.4-0.2,2.2-1.1,2.3-2.4c0-1.3-0.7-2.3-2.2-2.4c-2.5-0.2-5-0.2-7.5-0.2c-0.1,0-0.3,0.2-0.3,0.4
	C63.8,57.5,63.8,59.1,63.8,60.7 M63.8,51c2.2,0,4.3,0.1,6.3,0c1.3-0.1,2.1-1,2.2-2c0.1-1.5-0.7-2.6-2.3-2.7
	c-1.9-0.1-3.8-0.1-5.7-0.1c-0.2,0-0.5,0.2-0.5,0.4C63.8,48,63.8,49.5,63.8,51"/>
<path class="st0" d="M111.3,50.8c0,0.3,0,0.5,0,0.8c0,4.3,0,8.5,0,12.8c0,1-0.2,1.2-1.2,1.2c-1,0-2,0-3,0c-0.9,0-1.1-0.3-1.1-1.1
	c0-1.8,0-3.7,0-5.5c0-5.4,0-10.8,0-16.2c0-1.1,0.1-1.3,1.2-1.3c0.9,0,1.8,0,2.7,0c0.8,0,1.3,0.3,1.7,0.9c1.1,1.4,2.1,2.9,3.2,4.3
	c1.9,2.6,3.8,5.1,5.8,7.7c0.4,0.5,0.8,1,1.4,1.4c0-0.2,0-0.5,0-0.7c0-4.1,0-8.2,0-12.3c0-1.2,0-1.2,1.2-1.2c1,0,1.9,0,2.9,0
	c1,0,1.1,0.2,1.1,1.1c0,2.6,0,5.3,0,7.9c0,4.6,0,9.2,0,13.8c0,1.1-0.2,1.3-1.3,1.3c-0.7,0-1.5,0-2.2,0c-0.7,0-1.2-0.3-1.6-0.9
	c-0.9-1.3-1.9-2.5-2.9-3.7c-1.2-1.6-2.4-3.2-3.7-4.9c-1.2-1.5-2.3-3-3.5-4.5c-0.2-0.3-0.4-0.6-0.5-0.8
	C111.4,50.7,111.4,50.7,111.3,50.8"/>
<path class="st0" d="M83.1,53.4c0-3.6,0-7.2,0-10.7c0-1.1,0.2-1.2,1.3-1.2c5.2,0,10.5,0,15.7,0c1.1,0,1.2,0.1,1.2,1.3
	c0,0.8,0,1.6,0,2.4c0,1-0.2,1.2-1.2,1.2c-3.6,0-7.2,0-10.8,0c-0.7,0-1,0.2-0.9,0.9c0.1,1,0,2.1,0,3.1c0,0.6,0.2,0.8,0.8,0.8
	c3,0,6,0,9,0c1.4,0,1.5,0.1,1.5,1.5c0,0.6,0,1.2,0,1.9c0,1.2-0.2,1.4-1.4,1.4c-3,0-6,0-8.9,0c-1,0-1,0-1,1c0,1,0,2,0,3c0,1,0,1,1,1
	c3.4,0,6.8,0,10.2,0c0.3,0,0.5,0,0.8,0c0.8,0,1,0.2,1,1c0,1,0,1.9,0,2.9c0,0.7-0.3,1-1,1c-0.9,0-1.8,0-2.7,0c-4.5,0-8.9,0-13.4,0
	c-1.1,0-1.3-0.2-1.3-1.4C83.1,60.6,83.1,57,83.1,53.4"/>
<path class="st0" d="M138.1,55.7c0,1.6,0,3,0,4.5c0,0.5,0.4,0.4,0.7,0.4c2.7,0,5.4,0,8.1,0c1,0,2.1,0,3.1,0c0.6,0,0.9,0.3,0.9,0.9
	c0,1,0,1.9,0,2.9c0,0.8-0.2,1-1,1c-1.5,0-2.9,0-4.4,0c-3.9,0-7.7,0-11.6,0c-1.1,0-1.3-0.2-1.3-1.2c0-7.3,0-14.5,0-21.8
	c0-1,0.1-1.1,1.1-1.1c5.3,0,10.6,0,15.9,0c0.9,0,1.1,0.2,1.1,1.1c0,0.9,0,1.7,0,2.6c0,0.9-0.2,1.1-1.1,1.1c-3.5,0-7.1,0-10.6,0h-1
	c0,1.5,0,3,0,4.4c0,0.1,0.4,0.3,0.6,0.3c1.3,0,2.7,0,4,0c1.8,0,3.6,0,5.3,0c1.1,0,1.2,0.2,1.2,1.2c0,0.8,0,1.6,0,2.4
	c0,0.8-0.2,1.1-1.1,1.1c-2.1,0-4.2,0-6.3,0C140.7,55.7,139.4,55.7,138.1,55.7"/>
<path class="st0" d="M208,54.7c-3.4,1.1-6.7,2.3-10.2,3.4c0.6,1.3,1.1,2.6,1.7,3.9c0.4,0.9,0.9,1.8,1.3,2.7c0.2,0.6,0.1,0.8-0.5,0.8
	c-0.5,0-1,0-1.4,0c-0.6,0-0.8-0.5-1-0.9c-0.8-1.8-1.7-3.6-2.4-5.4c-0.2-0.5-0.5-0.6-1-0.6c-4,0.6-8,1.2-12.1,1.8
	c-0.4,0.1-0.6,0.2-0.7,0.5c-0.5,1.2-1,2.3-1.5,3.5c-0.4,0.9-1.9,1.4-2.8,0.9c-0.5-0.3-0.2-0.6-0.1-0.9c1.1-2.4,2.2-4.8,3.2-7.2
	c1.2-2.8,2.5-5.5,3.7-8.3c1-2.3,2.1-4.6,3.1-6.9c0.3-0.6,0.7-0.9,1.4-0.9c1.2-0.1,1.8,0.3,2.3,1.5c1.1,2.7,2.4,5.4,3.6,8
	c0.6,1.3,1.2,2.6,1.7,3.9c0.2,0.5,0.5,0.7,1.1,0.6c3.1-0.5,6.1-1.5,9-2.6c0.2-0.1,0.4-0.2,0.6-0.2c0,0,0.1-0.1,0.1-0.1
	c-0.3-0.4-0.6-0.7-0.9-1.1c-1.5-2.2-3-4.3-4.5-6.5c-0.6-0.9-1.2-1.8-1.7-2.7c-0.3-0.5-0.3-0.7,0.4-0.7c2.8,0,2.2-0.4,3.8,1.9
	c1.3,2,2.7,4,4,5.9c0.4,0.6,0.7,1.2,1.1,1.8c0.1,0.2,0.5,0.3,0.7,0.2c3-1.5,5.9-3.1,8.6-5.2c1.1-0.9,2.2-1.8,3.2-2.8
	c0.5-0.5,1-1,1.4-1.6c0.4-0.5,0.9-0.4,1.4-0.3c0.2,0.1,0.3,0.6,0.3,0.9c0,0.1-0.2,0.3-0.3,0.4c-1.9,1.8-3.8,3.7-5.8,5.4
	c-1.5,1.3-3.3,2.3-4.9,3.5c-0.7,0.5-1.5,0.8-2.2,1.3c-0.3,0.2-0.6,0.7-0.7,1.1c-0.1,0.3-0.1,0.7-0.1,1c0,3.1,0,6.1,0,9.2
	c0,1.3-0.1,1.4-1.5,1.4c-1.1,0-1.3-0.2-1.3-1.4c0-2.9,0-5.8,0-8.6C208,55.2,208,55,208,54.7 M194,56.1c-1.7-3.9-3.4-7.6-5.1-11.5
	c-1.9,4.3-3.7,8.3-5.5,12.3c0,0.1,0.1,0.1,0.1,0.2C187,56.8,190.4,56.4,194,56.1"/>
<path class="st0" d="M170.3,53c0.8,0.5,1.7,0.9,2.5,1.3c1.5,0.9,2.1,2.3,2.3,3.9c0.3,2.7-1.1,4.9-3.5,6.2c-1.5,0.8-3.1,1.1-4.8,1.1
	c-3.3,0-6.6,0-9.9,0c-0.9,0-1.1-0.3-1.1-1.1c0-7.3,0-14.6,0-22c0-0.8,0.2-1,1-1c3.3,0,6.7-0.1,10,0c2.6,0.1,4.8,1,6.3,3.3
	c1.2,1.7,0.9,5.7-1.2,7.1C171.4,52.2,170.9,52.6,170.3,53 M158.6,62.9c2.7,0,5.3,0,7.9,0c1.3,0,2.5-0.2,3.7-0.8c2.4-1,2.9-4.4,1-6.1
	c-1-1-2.3-1.2-3.5-1.2c-2.9-0.1-5.8-0.1-8.7-0.1c-0.1,0-0.2,0-0.4,0.1V62.9z M158.6,52c2.6,0,5.2,0,7.7,0c0.8,0,1.7-0.2,2.5-0.5
	c1.9-0.8,2.4-2.7,2-4.6c-0.1-0.8-0.5-1.6-1.2-1.9c-1-0.4-2.1-0.8-3.2-0.8c-2.4-0.1-4.8,0-7.3,0c-0.2,0-0.4,0.1-0.5,0.1V52z"/>
<path class="st0" d="M44,12.7c0,1.9-0.2,3.5-1,5.1c-0.2,0.3-0.2,0.7-0.4,1c-1.2,2.4-4.2,4.1-7.1,2.5c-2.9-1.6-3.7-3.8-2.3-7.2
	c0.9-2.3,2.3-4.5,4.1-6.2c0.6-0.6,1.2-1.1,2.1-1.2c1.2-0.1,2.8,0.3,3.5,1.5C43.7,9.6,44,11.2,44,12.7"/>
<path class="st0" d="M216.1,60.9c-0.2-2.4,2.4-4.5,4.5-4.5c2.2,0,4.6,2.2,4.5,4.6c-0.1,2.4-2.2,4.5-4.5,4.5
	C218.1,65.5,215.9,63.2,216.1,60.9 M220.5,64.8c2.1,0.2,3.9-2,3.9-3.8c0-2-1.8-3.8-3.8-3.8c-2.1,0-3.9,1.8-3.9,3.8
	C216.7,62.9,218.7,64.9,220.5,64.8"/>
<path class="st0" d="M219.6,61.6c0,0.4,0,0.8,0,1.2c0,0.1-0.2,0.2-0.3,0.4c-0.1-0.1-0.2-0.2-0.2-0.4c0-1.3,0-2.5,0-3.8
	c0-0.1,0.3-0.4,0.4-0.4c0.5,0,1.1-0.1,1.7,0c0.6,0.1,1.2,0.1,1.4,0.9c0.2,1,0,1.5-0.9,2c0.2,0.3,0.4,0.5,0.6,0.7
	c0.2,0.3,0.3,0.6,0.5,0.8c-0.1,0.1-0.1,0.1-0.1,0.2c-0.2-0.1-0.4-0.2-0.6-0.3c-0.3-0.3-0.5-0.5-0.7-0.8
	C220.8,61.5,220.3,61.4,219.6,61.6 M219.6,61c0.6,0,1.2,0,1.6-0.1c0.3-0.1,0.6-0.5,0.7-0.8c0.1-0.5-0.3-0.8-0.8-0.8
	c-0.5-0.1-1,0-1.6,0V61z"/>
</svg>
